{
    "docs": [
        {
            "_id": "67be6e2583f4c562e6a5e19c",
            "title": "primeira tentativa",
            "content": "comentario... ",
            "images": [
                {
                    "address": "./src/backend/files/postImages/67be6e2583f4c562e6a5e19c_2.jpg",
                    "description": "1740533285342_unsplash02.jpg"
                },
                {
                    "address": "./src/backend/files/postImages/67be6e2583f4c562e6a5e19c_0.jpg",
                    "description": "1740533285325_unsplash05.jpg"
                },
                {
                    "address": "./src/backend/files/postImages/67be6e2583f4c562e6a5e19c_1.jpg",
                    "description": "1740533285340_unsplash03.jpg"
                }
            ],
            "comments": [
                {
                    "_id": "67be6e6783f4c562e6a5e1aa",
                    "text": "oh.. foi de primeira!!",
                    "createdAt": "2025-02-26T01:29:11.261Z",
                    "updatedAt": "2025-02-26T01:29:11.261Z",
                    "user": {
                        "_id": "679aed368f982150237a6f41",
                        "firstName": "Janaina",
                        "lastName": "Alves",
                        "avatarImage": "http://localhost:5000/images/avatar/679aed368f982150237a6f41.png"
                    },
                    "likes": []
                }
            ],
            "author": [
                {
                    "_id": "679aed368f982150237a6f41",
                    "firstName": "Janaina",
                    "lastName": "Alves",
                    "avatarImage": "http://localhost:5000/images/avatar/679aed368f982150237a6f41.png"
                }
            ],
            "likes": [
                {
                    "_id": "67be6e5a83f4c562e6a5e1a6",
                    "user": {
                        "firstName": "Janaina",
                        "lastName": "Alves",
                        "avatarImage": "http://localhost:5000/images/avatar/679aed368f982150237a6f41.png"
                    }
                },
                {
                    "_id": "67be8064eb45a0e1e7d935ac",
                    "user": {
                        "firstName": "João",
                        "avatarImage": "http://localhost:5000/images/avatar/679aed368f982150237a6f3b.png",
                        "lastName": "da Silva"
                    }
                }
            ]
        },
        {
            "_id": "67be7ee0eb45a0e1e7d93549",
            "title": "sera q vai agora?",
            "content": "fé!!!",
            "images": [
                {
                    "address": "./src/backend/files/postImages/67be7ee0eb45a0e1e7d93549_0.png",
                    "description": "1740537568059_momo-studio.png"
                }
            ],
            "comments": [],
            "author": [
                {
                    "_id": "679aed368f982150237a6f41",
                    "firstName": "Janaina",
                    "lastName": "Alves",
                    "avatarImage": "http://localhost:5000/images/avatar/679aed368f982150237a6f41.png"
                }
            ],
            "likes": [
                {
                    "_id": "67be7f0ceb45a0e1e7d93579",
                    "user": {
                        "firstName": "Janaina",
                        "lastName": "Alves",
                        "avatarImage": "http://localhost:5000/images/avatar/679aed368f982150237a6f41.png"
                    }
                },
                {
                    "_id": "67be8061eb45a0e1e7d935a8",
                    "user": {
                        "firstName": "João",
                        "avatarImage": "http://localhost:5000/images/avatar/679aed368f982150237a6f3b.png",
                        "lastName": "da Silva"
                    }
                }
            ]
        },
        {
            "_id": "67be7fc2eb45a0e1e7d9357d",
            "title": "lilas",
            "content": "de repente uma tematica lilas apareceu no unsplash...",
            "images": [
                {
                    "address": "./src/backend/files/postImages/67be7fc2eb45a0e1e7d9357d_0.jpg",
                    "description": "1740537794369_philipp-deus-gikGlBqHkrg-unsplash.jpg"
                },
                {
                    "address": "./src/backend/files/postImages/67be7fc2eb45a0e1e7d9357d_2.jpg",
                    "description": "1740537794392_gin-majka-AvQ3hrbr2ts-unsplash.jpg"
                },
                {
                    "address": "./src/backend/files/postImages/67be7fc2eb45a0e1e7d9357d_1.jpg",
                    "description": "1740537794376_daniil-silantev-TVtL3Tv0SJg-unsplash.jpg"
                }
            ],
            "comments": [
                {
                    "_id": "67be7ff8eb45a0e1e7d9358e",
                    "text": "tá faltando ação de limpar o post, após postar.\ne também dar um refresh no feed após postar!!",
                    "createdAt": "2025-02-26T02:44:08.252Z",
                    "updatedAt": "2025-02-26T02:44:08.252Z",
                    "user": {
                        "_id": "679aed368f982150237a6f41",
                        "firstName": "Janaina",
                        "lastName": "Alves",
                        "avatarImage": "http://localhost:5000/images/avatar/679aed368f982150237a6f41.png"
                    },
                    "likes": [
                        {
                            "_id": "67be8014eb45a0e1e7d9359a",
                            "user": {
                                "firstName": "João",
                                "avatarImage": "http://localhost:5000/images/avatar/679aed368f982150237a6f3b.png",
                                "lastName": "da Silva"
                            }
                        }
                    ]
                }
            ],
            "author": [
                {
                    "_id": "679aed368f982150237a6f41",
                    "firstName": "Janaina",
                    "lastName": "Alves",
                    "avatarImage": "http://localhost:5000/images/avatar/679aed368f982150237a6f41.png"
                }
            ],
            "likes": [
                {
                    "_id": "67be7fd0eb45a0e1e7d9358a",
                    "user": {
                        "firstName": "Janaina",
                        "lastName": "Alves",
                        "avatarImage": "http://localhost:5000/images/avatar/679aed368f982150237a6f41.png"
                    }
                },
                {
                    "_id": "67be8013eb45a0e1e7d93596",
                    "user": {
                        "firstName": "João",
                        "avatarImage": "http://localhost:5000/images/avatar/679aed368f982150237a6f3b.png",
                        "lastName": "da Silva"
                    }
                }
            ]
        },
        {
            "_id": "67be8055eb45a0e1e7d9359d",
            "title": "oq fazer agora?",
            "content": "além do refresh.. falta fazer modal para os comentários. criar um novo componente pra isso.",
            "images": [],
            "comments": [
                {
                    "_id": "67be80deeb45a0e1e7d935ba",
                    "text": "também falta paginação para os posts e editar os posts.",
                    "createdAt": "2025-02-26T02:47:58.445Z",
                    "updatedAt": "2025-02-26T02:47:58.445Z",
                    "user": {
                        "_id": "679aed368f982150237a6f3b",
                        "firstName": "João",
                        "avatarImage": "http://localhost:5000/images/avatar/679aed368f982150237a6f3b.png",
                        "lastName": "da Silva"
                    },
                    "likes": []
                },
                {
                    "_id": "67be8101eb45a0e1e7d935bd",
                    "text": "mas por hj é só!!",
                    "createdAt": "2025-02-26T02:48:33.533Z",
                    "updatedAt": "2025-02-26T02:48:33.533Z",
                    "user": {
                        "_id": "679aed368f982150237a6f3b",
                        "firstName": "João",
                        "avatarImage": "http://localhost:5000/images/avatar/679aed368f982150237a6f3b.png",
                        "lastName": "da Silva"
                    },
                    "likes": []
                },
                {
                    "_id": "67c2728bbd120543f7b1b461",
                    "text": "mais um comentario... ",
                    "createdAt": "2025-03-01T02:35:55.635Z",
                    "updatedAt": "2025-03-01T02:35:55.635Z",
                    "user": {
                        "_id": "679aed368f982150237a6f41",
                        "firstName": "Janaina",
                        "lastName": "Alves",
                        "avatarImage": "http://localhost:5000/images/avatar/679aed368f982150237a6f41.png"
                    },
                    "likes": []
                }
            ],
            "author": [
                {
                    "_id": "679aed368f982150237a6f3b",
                    "firstName": "João",
                    "avatarImage": "http://localhost:5000/images/avatar/679aed368f982150237a6f3b.png",
                    "lastName": "da Silva"
                }
            ],
            "likes": [
                {
                    "_id": "67be805feb45a0e1e7d935a4",
                    "user": {
                        "firstName": "João",
                        "avatarImage": "http://localhost:5000/images/avatar/679aed368f982150237a6f3b.png",
                        "lastName": "da Silva"
                    }
                },
                {
                    "_id": "67bfc36d26c5cb6bc798a8bb",
                    "user": {
                        "firstName": "Janaina",
                        "lastName": "Alves",
                        "avatarImage": "http://localhost:5000/images/avatar/679aed368f982150237a6f41.png"
                    }
                }
            ]
        },
        {
            "_id": "67bfb67f26c5cb6bc798a6a4",
            "title": "refresh",
            "content": "... nanana",
            "images": [
                {
                    "address": "./src/backend/files/postImages/67bfb67f26c5cb6bc798a6a4_0.jpg",
                    "description": "1740617343945_philipp-deus-gikGlBqHkrg-unsplash.jpg"
                },
                {
                    "address": "./src/backend/files/postImages/67bfb67f26c5cb6bc798a6a4_2.jpg",
                    "description": "1740617343971_jay-soundo-zh3MQijq5mA-unsplash.jpg"
                },
                {
                    "address": "./src/backend/files/postImages/67bfb67f26c5cb6bc798a6a4_1.jpg",
                    "description": "1740617343956_gin-majka-AvQ3hrbr2ts-unsplash.jpg"
                }
            ],
            "comments": [],
            "author": [
                {
                    "_id": "679aed368f982150237a6f41",
                    "firstName": "Janaina",
                    "lastName": "Alves",
                    "avatarImage": "http://localhost:5000/images/avatar/679aed368f982150237a6f41.png"
                }
            ],
            "likes": [
                {
                    "_id": "67bfc36c26c5cb6bc798a8b7",
                    "user": {
                        "firstName": "Janaina",
                        "lastName": "Alves",
                        "avatarImage": "http://localhost:5000/images/avatar/679aed368f982150237a6f41.png"
                    }
                },
                {
                    "_id": "67c35cfef7262043b6c49c94",
                    "user": {
                        "firstName": "Cesar",
                        "lastName": "Melo dos Santos",
                        "avatarImage": "https://lh3.googleusercontent.com/a/ACg8ocIFM0EiyiS5yNWQyDq4C7zQr0pvHPNCtN7y7K0QYAg84IYPgUA5=s96-c"
                    }
                },
                {
                    "_id": "67c4cdca6ceb86a17e979de1",
                    "user": {
                        "firstName": "Maria",
                        "lastName": "Oliveira",
                        "avatarImage": "http://localhost:5000/images/avatar/679aed368f982150237a6f3d.png"
                    }
                }
            ]
        }
    ],
    "totalDocs": 18,
    "limit": 5,
    "page": 1,
    "totalPages": 4,
    "pagingCounter": 1,
    "hasPrevPage": false,
    "hasNextPage": true,
    "prevPage": null,
    "nextPage": 2
}




0: IntersectionObserverEntry
boundingClientRect: DOMRectReadOnly {x: 576, y: 546, width: 768, height: 48, top: 546, …}
intersectionRatio: 1
intersectionRect: DOMRectReadOnly {x: 576, y: 546, width: 768, height: 48, top: 546, …}
isIntersecting: true
isVisible: false
rootBounds: DOMRectReadOnly {x: 0, y: 0, width: 1920, height: 911, top: 0, …}
target: div.my-2
time: 4646.399999976158